2143.0,0,1610,287
2146.0,0,1600,286
2140.0,0,1610,286
2143.0,0,1600,286
2147.0,0,1610,286
2146.0,0,0,0
2147.0,0,1600,285
2144.0,0,1600,286
2137.0,0,1600,287
2140.0,0,1600,284
2149.0,0,0,0
2147.0,0,1600,285
2134.0,0,1600,284
2142.0,0,1600,286
2144.0,0,1600,285
2136.0,0,1600,286
2146.0,0,1600,286
2148.0,0,1600,284
2144.0,0,1600,286
2142.0,0,0,0
2141.0,0,1600,285
2146.0,0,1600,286
2144.0,0,1600,286
2139.0,0,1600,286
2139.0,0,1600,285
2149.0,0,1600,284
2141.0,0,0,0
2146.0,0,1600,285
2144.0,0,1600,284
2142.0,0,300,433
2151.0,0,300,433
2148.0,0,300,465
2139.0,0,300,386
2141.0,0,300,367
2136.0,0,300,364
2147.0,0,300,366
2148.0,0,0,0
2143.0,0,300,363
2148.0,0,300,358
2135.0,0,300,355
2136.0,0,300,352
2135.0,0,300,349
2149.0,0,300,348
2133.0,0,0,0
2131.0,0,300,347
2144.0,0,300,347
2129.0,0,300,345
2143.0,0,300,344
2148.0,0,300,344
2134.0,0,300,344
2144.0,0,300,343
2146.0,0,300,343
2141.0,0,300,342
2138.0,0,300,342
2148.0,0,300,340
2133.0,0,300,340
2147.0,0,300,337
2138.0,0,300,334
2132.0,0,300,330
2142.0,0,300,321
2134.0,0,300,305
2149.0,0,0,0
2146.0,0,300,296
